<?xml version="1.0" encoding="UTF-8"?>
<svg width="700" height="700" version="1.1" viewBox="0 0 185.21 185.21" xmlns="http://www.w3.org/2000/svg" xmlns:cc="http://creativecommons.org/ns#" xmlns:dc="http://purl.org/dc/elements/1.1/" xmlns:rdf="http://www.w3.org/1999/02/22-rdf-syntax-ns#">
 <metadata>
  <rdf:RDF>
   <cc:Work rdf:about="">
    <dc:format>image/svg+xml</dc:format>
    <dc:type rdf:resource="http://purl.org/dc/dcmitype/StillImage"/>
    <dc:title/>
   </cc:Work>
  </rdf:RDF>
 </metadata>
 <g fill="#999" stroke-width=".26458">
  <rect x="132.29" y="132.29" width="26.458" height="52.917"/>
  <rect x="-3.3569e-6" y="132.29" width="185.21" height="26.458"/>
  <rect x="79.376" y="158.75" width="26.458" height="26.458"/>
  <rect x="132.29" y="-.0003841" width="26.458" height="26.458"/>
  <rect x="132.29" y="26.458" width="26.458" height="105.83"/>
  <rect x="-3.3569e-6" y="79.375" width="132.29" height="26.458"/>
  <rect x="79.376" y="52.917" width="26.458" height="26.458"/>
  <rect x="-3.3569e-6" y="26.458" width="132.29" height="26.458"/>
  <rect x="26.458" y="-.0003841" width="26.458" height="26.458"/>
  <rect x="26.458" y="105.83" width="26.458" height="26.458"/>
  <rect x="158.75" y="26.458" width="26.458" height="26.458"/>
 </g>
 <g fill="#d35f5f" stroke="#000" stroke-width=".26458">
  <rect x="158.75" y="-.0003841" width="26.458" height="26.458"/>
  <rect x="52.917" y="-.0003841" width="79.376" height="26.458"/>
  <rect x="-3.3569e-6" y="-.0003841" width="26.458" height="26.458"/>
  <rect x="-3.3569e-6" y="52.917" width="79.376" height="26.458"/>
  <rect x="105.83" y="52.917" width="26.458" height="26.458"/>
  <rect x="158.75" y="52.917" width="26.458" height="79.376"/>
  <rect x="52.917" y="105.83" width="79.376" height="26.458"/>
  <rect x="-3.3569e-6" y="105.83" width="26.458" height="26.458"/>
  <rect x="-3.3569e-6" y="158.75" width="79.376" height="26.458"/>
  <rect x="105.83" y="158.75" width="26.458" height="26.458"/>
 </g>
 <g stroke="#000" stroke-width=".26458">
  <rect x="158.75" y="158.75" width="26.458" height="26.458" fill="#cf0"/>
  <rect x="-3.3569e-6" y="52.917" width="26.458" height="26.458" fill="#0cf"/>
  <rect x="105.83" y="-.0003841" width="26.458" height="26.458" fill="#0cf"/>
 </g>
 <rect x="132.29" y="158.75" width="26.458" height="26.458" fill="#cf0" opacity=".21427"/>
 <rect x="158.75" y="132.29" width="26.458" height="26.458" fill="#cf0" opacity=".21427"/>
 <g fill="#0cf">
  <rect x="132.29" y="-.00039" width="26.458" height="26.458" opacity=".21427"/>
  <rect x="105.83" y="26.458" width="26.458" height="26.458" opacity=".21427"/>
  <rect y="26.458" width="26.458" height="26.458" opacity=".21427"/>
  <rect y="79.375" width="26.458" height="26.458" opacity=".21427"/>
 </g>
 <g fill="none" stroke="#000" stroke-width=".79376">
  <rect x="165.37" y="171.98" width="13.229" height="13.229"/>
  <path d="m165.37 171.98 6.6146-7.9376"/>
  <path d="m178.59 171.98-6.6146-7.9376"/>
  <path d="m112.45 23.812 2.8218-7.9942-7.0585-4.6955 8.4749 0.21337 2.2845-8.164 2.416 8.1261 8.4704-0.3501-6.9818 4.8088 2.9505 7.9476-6.7309-5.1541z" stroke-linecap="square"/>
  <path d="m6.7032 76.521 2.8218-7.9942-7.0585-4.6955 8.4749 0.21337 2.2845-8.164 2.416 8.1261 8.4704-0.3501-6.9818 4.8088 2.9505 7.9476-6.7309-5.1541z" stroke-linecap="square"/>
 </g>
</svg>
